EVs and Health: Experiments for Germany
…
Data Validation

## BEV Data Validation

bev_data %>% select(AGS) %>% n_distinct()

[1] 434

test <- anti_join(bev_data, map_data, by = "AGS")
test %>% select(AGS) %>% distinct()

# A tibble: 33 × 1
     AGS
   <int>
 1  3152
 2  3156
 3  8210
 4  8238
 5  8255
 6  8310
 7  8330
 8  8333
 9  8410
10  8414
# ℹ 23 more rows

test %>% pull(BEV_share) %>% is.na() %>% mean()

[1] 1

## Patient Data Validation

patient_data %>% select(AGS) %>% n_distinct()

[1] 473

test <- anti_join(patient_data, map_data, by = "AGS") 
test %>% select(AGS) %>% distinct()

# A tibble: 72 × 1
     AGS
   <dbl>
 1  3152
 2  3156
 3  5354
 4 13001
 5 13002
 6 13005
 7 13006
 8 13051
 9 13052
10 13053
# ℹ 62 more rows

test %>% pull(patients_all) %>% is.na() %>% mean()

[1] 1

## Mortality Data Validation

mortality_data %>% select(AGS) %>% n_distinct()

[1] 473

test <- anti_join(mortality_data, map_data, by = "AGS")
test %>% select(AGS) %>% distinct()

# A tibble: 72 × 1
     AGS
   <dbl>
 1  3152
 2  3156
 3  5354
 4 13001
 5 13002
 6 13005
 7 13006
 8 13051
 9 13052
10 13053
# ℹ 62 more rows
…
